Building Data Science Capacity
…
bcmaps 📦

bcmaps::available_layers()
# A tibble: 37 × 6
   layer_name                title         record resource using_shortcuts local
 * <chr>                     <chr>         <chr>  <chr>    <lgl>           <lgl>
 1 airzones                  British Colu… e8eee… c495d08… TRUE            FALSE
 2 bc_bound                  BC Boundary   b9bd9… f591698… FALSE           FALSE
 3 bc_bound_hres             High Resolut… 30aeb… 3d72cf3… FALSE           FALSE
 4 bc_cities                 BC Major Cit… b678c… 443dd85… TRUE            FALSE
 5 bc_neighbours             Boundary of … b9bd9… f591698… FALSE           FALSE
 6 bec                       British Colu… f358a… 3ec24cb… TRUE            FALSE
 7 cded_raster               Get Canadian… <NA>   <NA>     FALSE           FALSE
 8 cded_stars                Get Canadian… <NA>   <NA>     FALSE           FALSE
 9 census_dissemination_area Current Cens… a091f… a7fa66d… TRUE            FALSE
10 census_division           Current Cens… ef179… 36b530c… TRUE            FALSE
# ℹ 27 more rows
…
bcdata 📦

bcdata::bcdc_get_data(record = "bc-airports",
              resource = "fcccba36-b528-4731-8978-940b3cc04f69")
# A tibble: 24 × 3
   DESCRIPTION      aerodrome          `Transport Canada registered airports`   
   <chr>            <chr>              <chr>                                    
 1 <NA>             airport            Transport Canada certified airports      
 2 <NA>             airstrip           Cleared landing space with no associated…
 3 <NA>             helipad            Landing area or platform for helicopters 
 4 <NA>             heliport           A small airport suitable only for use by…
 5 <NA>             hospital heliport  Any helipad located at a hospital        
 6 <NA>             seaplane anchorage An area in which seaplanes may can anchor
 7 <NA>             water aerodrome    Any water surface intended to be used fo…
 8 <NA>             <NA>               <NA>                                     
 9 AERODROME_STATUS certified          Airports operated and maintained in acco…
10 <NA>             registered         Aerodromes not subject to ongoing inspec…
# ℹ 14 more rows
…
